{
  "Customer-ID": "user1",
  "Customer-Name": "userName1",
  "Age": 32,
  "Contact": 9876543213,
  "Address": "user1address1",
  "Policy-Details": {
    "Policy-ID": "axa_life_user1_trans12",
    "Policy-Provider": "Axa",
    "Policy-TermPeriod": "34 years",
    "Policy-Premium": "2000/year",
    "Policy-Cover": "1 crore",
    "Policy-Type": "Life Insurance"
  }
}
    